Process Quast Output
…
## Parsed with column specification:
## cols(
##   .default = col_character(),
##   taxid = col_integer(),
##   species_taxid = col_integer(),
##   seq_rel_date = col_date(format = "")
## )

## See spec(...) for full column specifications.

## # A tibble: 247 x 4
## # Groups:   species_taxid [247]
##    species_taxid speciesName count  perc
##            <int> <chr>       <int> <dbl>
##  1          1590 plantarum     283 15.7 
##  2         47715 rhamnosus     144  8   
##  3          1598 reuteri       117  6.5 
##  4          1624 salivarius     81  4.5 
##  5          1597 paracasei      75  4.17
##  6         47770 crispatus      60  3.33
##  7          1584 delbrueckii    52  2.89
##  8          1582 casei          50  2.78
##  9          1580 brevis         49  2.72
## 10          1587 helveticus     49  2.72
## # ... with 237 more rows
…
